verification/test_adder/dump.vcd
$date
	Sun May 26 06:56:00 2024
$end

$version
	Synopsys VCS version S-2021.09-SP2-5_Full64
$end

$timescale
	1ps
$end

$comment Csum: 1 5815a83b3b74d1c7 $end


$scope module adder $end
$var reg 1 ! clk $end
$var reg 1 " rst $end
$var reg 1 # val_in $end
$var reg 1 $ rdy_out $end
$var reg 4 % A [3:0] $end
$var reg 4 & B [3:0] $end
$var reg 1 ' rdy_in $end
$var reg 1 ( val_out $end
$var reg 4 ) S [3:0] $end
$var reg 1 * C $end
$var reg 4 + a_reg [3:0] $end
$var reg 4 , b_reg [3:0] $end
$var reg 5 - x_reg [4:0] $end
$var reg 5 . X [4:0] $end

$scope module cntr $end
$var reg 1 / clk $end
$var reg 1 0 rst $end
$var reg 1 1 val_in $end
$var reg 1 2 rdy_out $end
$var reg 1 3 rdy_in $end
$var reg 1 4 val_out $end
$var reg 32 5 state_reg [31:0] $end
$var reg 32 6 state_next [31:0] $end
$upscope $end

$upscope $end

$enddefinitions $end

#0
$dumpvars
03
x2
10
x1
04
bxxxx %
bxxxx &
bxxxx )
bxxxxx .
bxxxx +
bxxxx ,
bxxxxx -
b00000000000000000000000000000001 6
b00000000000000000000000000000000 5
1!
1/
0'
0(
x*
1"
x#
x$
$end
#1
0!
0/
#2
1!
1/
b1101 &
b0011 %
1$
12
1#
11
0"
00
b0000 +
b0000 ,
b00000 .
#3
0!
0/
#4
1!
1/
b00000 -
0*
b0000 )
b00000000000000000000000000000001 5
b00000000000000000000000000000010 6
13
1'
#5
0!
0/
#6
1!
1/
b0011 +
b00011 .
b1101 ,
b10000 .
b00000000000000000000000000000010 5
b00000000000000000000000000000011 6
03
0'
#7
0!
0/
#8
1!
1/
b10000 -
1*
b00000000000000000000000000000011 5
b00000000000000000000000000000100 6
#9
0!
0/
#10
1!
1/
b00000000000000000000000000000100 5
b00000000000000000000000000000001 6
14
1(
#11
0!
0/
#12
1!
1/
b00000000000000000000000000000001 5
b00000000000000000000000000000010 6
04
0(
13
1'
#14
0!
0/
#15
1!
1/
1"
10
b00000000000000000000000000000010 5
b00000000000000000000000000000011 6
03
0'
#16
0!
0/
#17
1!
1/
b1000 &
b1011 %
0"
00
b0000 +
b01101 .
b0000 ,
b00000 .
b00000000000000000000000000000000 5
b00000000000000000000000000000001 6
#18
0!
0/
#19
1!
1/
b00000 -
0*
b00000000000000000000000000000001 5
b00000000000000000000000000000010 6
13
1'
#20
0!
0/
#21
1!
1/
b1011 +
b01011 .
b1000 ,
b10011 .
b00000000000000000000000000000010 5
b00000000000000000000000000000011 6
03
0'
#22
0!
0/
#23
1!
1/
b10011 -
1*
b0011 )
b00000000000000000000000000000011 5
b00000000000000000000000000000100 6
#24
0!
0/
#25
1!
1/
b00000000000000000000000000000100 5
b00000000000000000000000000000001 6
14
1(
#26
0!
0/
#27
1!
1/
b00000000000000000000000000000001 5
b00000000000000000000000000000010 6
04
0(
13
1'
#29
0!
0/
#30
1!
1/
1"
10
b00000000000000000000000000000010 5
b00000000000000000000000000000011 6
03
0'
#31
0!
0/
#32
1!
1/
b0110 &
b0110 %
0"
00
b0000 +
b01000 .
b0000 ,
b00000 .
b00000000000000000000000000000000 5
b00000000000000000000000000000001 6
#33
0!
0/
#34
1!
1/
b00000 -
0*
b0000 )
b00000000000000000000000000000001 5
b00000000000000000000000000000010 6
13
1'
#35
0!
0/
#36
1!
1/
b0110 +
b00110 .
b0110 ,
b01100 .
b00000000000000000000000000000010 5
b00000000000000000000000000000011 6
03
0'
#37
0!
0/
#38
1!
1/
b01100 -
b1100 )
b00000000000000000000000000000011 5
b00000000000000000000000000000100 6
#39
0!
0/
#40
1!
1/
b00000000000000000000000000000100 5
b00000000000000000000000000000001 6
14
1(
#41
0!
0/
#42
1!
1/
b00000000000000000000000000000001 5
b00000000000000000000000000000010 6
04
0(
13
1'
#44
0!
0/
#45
1!
1/
1"
10
b00000000000000000000000000000010 5
b00000000000000000000000000000011 6
03
0'
#46
0!
0/
#47
1!
1/
b0111 &
b1111 %
0"
00
b0000 +
b00110 .
b0000 ,
b00000 .
b00000000000000000000000000000000 5
b00000000000000000000000000000001 6
#48
0!
0/
#49
1!
1/
b00000 -
b0000 )
b00000000000000000000000000000001 5
b00000000000000000000000000000010 6
13
1'
#50
0!
0/
#51
1!
1/
b1111 +
b01111 .
b0111 ,
b10110 .
b00000000000000000000000000000010 5
b00000000000000000000000000000011 6
03
0'
#52
0!
0/
#53
1!
1/
b10110 -
1*
b0110 )
b00000000000000000000000000000011 5
b00000000000000000000000000000100 6
#54
0!
0/
#55
1!
1/
b00000000000000000000000000000100 5
b00000000000000000000000000000001 6
14
1(
#56
0!
0/
#57
1!
1/
b00000000000000000000000000000001 5
b00000000000000000000000000000010 6
04
0(
13
1'
#59
0!
0/
#60
1!
1/
1"
10
b00000000000000000000000000000010 5
b00000000000000000000000000000011 6
03
0'
#61
0!
0/
#62
1!
1/
b1101 &
b1101 %
0"
00
b0000 +
b00111 .
b0000 ,
b00000 .
b00000000000000000000000000000000 5
b00000000000000000000000000000001 6
#63
0!
0/
#64
1!
1/
b00000 -
0*
b0000 )
b00000000000000000000000000000001 5
b00000000000000000000000000000010 6
13
1'
#65
0!
0/
#66
1!
1/
b1101 +
b01101 .
b1101 ,
b11010 .
b00000000000000000000000000000010 5
b00000000000000000000000000000011 6
03
0'
#67
0!
0/
#68
1!
1/
b11010 -
1*
b1010 )
b00000000000000000000000000000011 5
b00000000000000000000000000000100 6
#69
0!
0/
#70
1!
1/
b00000000000000000000000000000100 5
b00000000000000000000000000000001 6
14
1(
#71
0!
0/
#72
1!
1/
b00000000000000000000000000000001 5
b00000000000000000000000000000010 6
04
0(
13
1'
